{
  "name": "Norbert Jahr",
  "start_times": {
    "1": "2020-12-01 06:00:00",
    "2": "2020-12-02 06:00:00",
    "3": "2020-12-03 06:00:00",
    "4": "2020-12-04 06:00:00",
    "5": "2020-12-05 06:00:00",
    "6": "2020-12-06 06:00:00",
    "7": "2020-12-07 06:00:00",
    "8": "2020-12-08 06:00:00",
    "9": "2020-12-09 06:00:00",
    "10": "2020-12-10 06:00:00",
    "11": "2020-12-11 06:00:00",
    "12": "2020-12-12 06:00:00",
    "13": "2020-12-13 06:00:00",
    "14": "2020-12-14 06:00:00",
    "15": "2020-12-15 06:00:00",
    "16": "2020-12-16 06:00:00",
    "17": "2020-12-17 06:00:00",
    "18": "2020-12-18 06:00:00",
    "19": "2020-12-19 06:00:00",
    "20": "2020-12-20 06:00:00",
    "21": "2020-12-21 06:00:00",
    "22": "2020-12-22 06:00:00",
    "23": "2020-12-23 06:00:00",
    "24": "2020-12-24 06:00:00",
    "25": "2020-12-25 06:00:00"
  }
}